…
Lets look at the content of each of these `*.txt.gz` files:

```r
> file <- file.path(path, "GSM2254215_ML1.rows=1-1000_assignments.txt.gz")
> a <- read_assignments(file)
> a
# A tibble: 1,000 x 4
   readname                   left_inner_barcode right_inner_barc… outer_barcode
   <chr>                      <chr>              <chr>             <chr>        
 1 D00584:136:HMTLJBCXX:1:11… CTCTCACG           CTCTCACG          TCAGATGC     
 2 D00584:136:HMTLJBCXX:1:11… GCACCATG           GCACCATG          GTGTAGCA     
 3 D00584:136:HMTLJBCXX:1:11… AGGTGCGA           AGGTGCGA          GTATCTAT     
 4 D00584:136:HMTLJBCXX:1:11… GCCTTAGG           GCCTTAGG          CAGCATAT     
 5 D00584:136:HMTLJBCXX:1:11… CACCTGTG           CACCTGTG          TACTAAGC     
 6 D00584:136:HMTLJBCXX:1:11… CCGCTACG           CCGCTACG          CAGCATAT     
 7 D00584:136:HMTLJBCXX:1:11… GCCTCGAA           GCCTCGAA          GTATCTAT     
 8 D00584:136:HMTLJBCXX:1:11… CTGGTCAC           CTGGTCAC          TTGACCAT     
 9 D00584:136:HMTLJBCXX:1:11… CTGCGTAG           CTGCGTAG          TATCTTGT     
10 D00584:136:HMTLJBCXX:1:11… CACGACCT           CACGACCT          GATGATCC     
# … with 990 more rows
```

```r
> p <- read_percentages(file)
> p
# A tibble: 1,000 x 16
   hg19_frac mm10_frac hg19_count mm10_count pair_count inner_barcode outer_barcode is_observed Col10 dpnii_1x
       <dbl>     <dbl>      <int>      <int>      <int> <chr>         <chr>         <chr>       <chr>    <int>
 1     1.000 0.0000356      28050          1      28052 ACCACCAC      TCAGATGC      True        All      55603
 2     0.680 0.320          19081       8970      28052 ACCACCAC      TCAGATGC      Randomized  All      55603
 3     1.000 0.0000370      27010          1      28052 ACCACCAC      TCAGATGC      True        Long     55603
 4     0.683 0.317          18444       8555      28052 ACCACCAC      TCAGATGC      Randomized  Long     55603
 5     0     1                  0          1          1 CATAGCGC      ACTTGATA      True        All          2
 6     1     0                  1          0          1 CATAGCGC      ACTTGATA      Randomized  All          2
 7     0     1                  0          1          1 CATAGCGC      ACTTGATA      True        Long         2
 8     1     0                  1          0          1 CATAGCGC      ACTTGATA      Randomized  Long         2
 9     1     0                  2          0          2 GGCCGTTC      GCCATTAA      True        All          4
10     1     0                  2          0          2 GGCCGTTC      GCCATTAA      Randomized  All          4
# … with 990 more rows, and 6 more variables: dpnii_2x <int>, dpnii_3x <int>, dpnii_4x <int>,
#   cistrans_ratio <dbl>, hela_allele_frac <dbl>, celltype <chr>
```

```r
> file <- file.path(path, "GSM2254215_ML1.rows=1-1000.validPairs.txt.gz")
> vp <- read_validpairs(file)
> vp
# A tibble: 1,000 x 17
   chr_a start_a  end_a chr_b start_b  end_b readname  col8  col9 col10 col11 inner_barcode outer_barcode
   <chr>   <int>  <int> <chr>   <int>  <int> <chr>    <int> <int> <chr> <chr> <chr>         <chr>        
 1 mous…  2.28e7 2.28e7 mous…  5.33e7 5.33e7 D00584:…    37    42 +     -     ATCCGCGG      GTCATAGT     
 2 huma…  8.86e7 8.86e7 huma…  8.91e7 8.91e7 D00584:…    42    42 -     -     GAGGAGCA      CGATGACA     
 3 huma…  1.27e8 1.27e8 huma…  1.27e8 1.27e8 D00584:…    42    42 +     +     GCTACGGT      AGTCGTAT     
 4 huma…  4.21e7 4.21e7 huma…  4.27e7 4.27e7 D00584:…    42    42 +     +     AGGTGCGA      ATACATGT     
 5 huma…  2.09e8 2.09e8 huma…  2.32e8 2.32e8 D00584:…    42    35 +     -     GCCTCGAA      GAGTACGT     
 6 huma…  5.57e6 5.57e6 huma…  1.50e8 1.50e8 D00584:…    42    42 +     -     GCTCGCTA      CTAGTGAA     
 7 mous…  4.12e7 4.12e7 mous…  4.12e7 4.12e7 D00584:…    42    42 +     -     GAGGAGCA      CGTTACTT     
 8 mous…  6.54e7 6.54e7 mous…  6.59e7 6.59e7 D00584:…    42    42 -     +     TCCGGACA      TGTCTGCA     
 9 huma…  1.82e8 1.82e8 huma…  1.82e8 1.82e8 D00584:…    42    42 +     -     CAGGCTTG      GATATAAC     
10 mous…  5.86e7 5.86e7 mous…  6.33e7 6.33e7 D00584:…    42    42 +     +     TCACGAGC      TGAGGCAA     
# … with 990 more rows, and 4 more variables: col14 <chr>, col15 <int>, col16 <chr>, col17 <int>
```
…
